Simulation of EV sessions — simulate_sessions • evsim
…
  ),
  user_profiles = tibble(
    time_cycle = c("Workday", "Workday", "Weekend"),
    profile = c("Visit", "Worktime", "Visit"),
    ratio = c(0.5, 0.5, 1),
    power = c(NA, 11, NA)
  ),
  charging_powers = tibble(
    power = c(3.7, 11),
    ratio = c(0.3, 0.7)
  ),
  dates = seq.Date(today(), today()+days(4), length.out = 4),
  resolution = 15
)
#> # A tibble: 55 × 11
#>    Session Timecycle Profile  ConnectionStartDateTime ConnectionEndDateTime
#>    <chr>   <chr>     <chr>    <dttm>                  <dttm>               
#>  1 S1      Workday   Visit    2024-08-23 05:45:00     2024-08-23 11:56:00  
#>  2 S2      Workday   Worktime 2024-08-23 06:00:00     2024-08-23 20:45:00  
#>  3 S3      Workday   Worktime 2024-08-23 06:30:00     2024-08-23 16:20:00  
#>  4 S4      Workday   Visit    2024-08-23 06:30:00     2024-08-23 10:36:00  
#>  5 S5      Workday   Worktime 2024-08-23 06:45:00     2024-08-23 16:03:00  
#>  6 S6      Workday   Worktime 2024-08-23 06:45:00     2024-08-23 16:09:00  
#>  7 S7      Workday   Worktime 2024-08-23 07:15:00     2024-08-23 20:13:00  
#>  8 S8      Workday   Worktime 2024-08-23 07:30:00     2024-08-23 16:03:00  
#>  9 S9      Workday   Worktime 2024-08-23 07:30:00     2024-08-23 18:18:00  
#> 10 S10     Workday   Visit    2024-08-23 07:45:00     2024-08-23 09:23:00  
#> # ℹ 45 more rows
#> # ℹ 6 more variables: ChargingStartDateTime <dttm>, ChargingEndDateTime <dttm>,
#> #   Power <dbl>, Energy <dbl>, ConnectionHours <dbl>, ChargingHours <dbl>
…
